Figure 1B. Analyses of Growth rate experiment using Softbugs isolated from Acromyrmex ants
…
datafile <- "Figure_1B_Growth_rate_analyses_DataSheet_20180303.xlsx"
sheet_strepto <- "Streptomyces"
sheet_softbugs <- "softbugs"

Dataset 1: Streptomyces

assay1 <- read_excel(datafile, sheet_strepto, na = "NA")
tbl_df(assay1) # should have 540 rows and 10 columns

## # A tibble: 540 x 10
##    Input.order Ps.strain Ps.genotype Invader      Inv.strain Plate
##          <dbl> <chr>     <chr>       <chr>             <dbl> <dbl>
##  1           1 A         Ps2         Streptomyces          1     1
##  2           2 A         Ps2         Streptomyces          1     2
##  3           3 A         Ps2         Streptomyces          1     3
##  4           4 A         Ps2         Streptomyces          2     1
##  5           5 A         Ps2         Streptomyces          2     2
##  6           6 A         Ps2         Streptomyces          2     3
##  7           7 A         Ps2         Streptomyces          3     1
##  8           8 A         Ps2         Streptomyces          3     2
##  9           9 A         Ps2         Streptomyces          3     3
## 10          10 A         Ps2         Streptomyces          5     1
## # ... with 530 more rows, and 4 more variables: Invasion.score <dbl>,
## #   Standardised.score <dbl>, Spore.production <chr>, Notes <chr>

assay1 <- assay1 %>% select(-Input.order, -Notes, -Standardised.score, -Spore.production) # should have 540 rows and 6 columns

Dataset 2: Softbugs (our shorthand term for Non-antibiotic-producers)

assay2 <- read_excel(datafile, sheet_softbugs, na = "NA")
tbl_df(assay2) # should have 600 rows and 9 cols

## # A tibble: 600 x 9
##    Input.order Ps.strain Ps.genotype Invader   Inv.strain Plate
##          <dbl> <chr>     <chr>       <chr>          <dbl> <dbl>
##  1           1 A         Ps2         soft_bugs         11     4
##  2           2 A         Ps2         soft_bugs         11     5
##  3           3 A         Ps2         soft_bugs         11     6
##  4           4 A         Ps2         soft_bugs         12     4
##  5           5 A         Ps2         soft_bugs         12     5
##  6           6 A         Ps2         soft_bugs         12     6
##  7           7 A         Ps2         soft_bugs         13     4
##  8           8 A         Ps2         soft_bugs         13     5
##  9           9 A         Ps2         soft_bugs         13     6
## 10          10 A         Ps2         soft_bugs         14     4
## # ... with 590 more rows, and 3 more variables: Invasion.score <dbl>,
## #   Standardised.score <dbl>, Notes <chr>
…
Assay 3: Combined

assay3 <- bind_rows(assay1, assay2)
assay3 <- assay3 %>% dplyr::select(Ps.genotype, Invader, Inv.strain, Ps.strain, Plate, Invasion.score) %>% arrange(Ps.genotype, Invader, Inv.strain, Ps.strain, Plate)
assay3 <- assay3 %>% filter(!is.na(Invasion.score))
assay3$Ps.genotype <- as.factor(assay3$Ps.genotype)
assay3$Invader <- as.factor(assay3$Invader)
assay3$Inv.strain <- as.factor(assay3$Inv.strain)
assay3$Ps.strain <- as.factor(assay3$Ps.strain)
assay3$Plate <- as.factor(assay3$Plate)
tbl_df(assay3) # 1070 rows and 6 cols

## # A tibble: 1,070 x 6
##    Ps.genotype Invader   Inv.strain Ps.strain Plate Invasion.score
##    <fct>       <fct>     <fct>      <fct>     <fct>          <dbl>
##  1 Control     soft_bugs 11         Control   1              0.581
##  2 Control     soft_bugs 11         Control   2              0.645
##  3 Control     soft_bugs 11         Control   3              0.777
##  4 Control     soft_bugs 12         Control   1              0.697
##  5 Control     soft_bugs 12         Control   2              0.77 
##  6 Control     soft_bugs 12         Control   3              0.593
##  7 Control     soft_bugs 13         Control   1              0.478
##  8 Control     soft_bugs 13         Control   2              0.64 
##  9 Control     soft_bugs 13         Control   3              0.723
## 10 Control     soft_bugs 14         Control   1              0.532
## # ... with 1,060 more rows
…
